{
    "results": [
        {
            "id": 1120293,
            "adult": false
        },
        {
            "id": 3686,
            "adult": false
        },
        {
            "id": 1085103,
            "adult": false
        },
        {
            "id": 1120294,
            "adult": false
        },
        {
            "id": 868759,
            "adult": false
        },
        {
            "id": 380298,
            "adult": false
        },
        {
            "id": 1120295,
            "adult": false
        },
        {
            "id": 1120296,
            "adult": false
        },
        {
            "id": 748701,
            "adult": false
        },
        {
            "id": 1120297,
            "adult": false
        },
        {
            "id": 1043565,
            "adult": false
        },
        {
            "id": 1120298,
            "adult": null
        },
        {
            "id": 876969,
            "adult": false
        },
        {
            "id": 195747,
            "adult": false
        },
        {
            "id": 675720,
            "adult": false
        },
        {
            "id": 1120299,
            "adult": false
        },
        {
            "id": 836734,
            "adult": false
        },
        {
            "id": 823216,
            "adult": false
        },
        {
            "id": 1120300,
            "adult": false
        },
        {
            "id": 983282,
            "adult": false
        },
        {
            "id": 1120301,
            "adult": false
        },
        {
            "id": 261814,
            "adult": false
        },
        {
            "id": 1120302,
            "adult": false
        },
        {
            "id": 1120303,
            "adult": false
        },
        {
            "id": 1120304,
            "adult": false
        },
        {
            "id": 35725,
            "adult": false
        },
        {
            "id": 183069,
            "adult": false
        },
        {
            "id": 725582,
            "adult": false
        },
        {
            "id": 9347,
            "adult": false
        },
        {
            "id": 927479,
            "adult": false
        },
        {
            "id": 955574,
            "adult": false
        },
        {
            "id": 1120305,
            "adult": true
        },
        {
            "id": 1097394,
            "adult": null
        },
        {
            "id": 45340,
            "adult": false
        },
        {
            "id": 420808,
            "adult": false
        },
        {
            "id": 29244,
            "adult": false
        },
        {
            "id": 566250,
            "adult": false
        },
        {
            "id": 1120306,
            "adult": true
        },
        {
            "id": 20342,
            "adult": false
        },
        {
            "id": 277618,
            "adult": false
        },
        {
            "id": 1120307,
            "adult": true
        },
        {
            "id": 754264,
            "adult": false
        },
        {
            "id": 851870,
            "adult": false
        },
        {
            "id": 658075,
            "adult": false
        },
        {
            "id": 518862,
            "adult": false
        },
        {
            "id": 989473,
            "adult": false
        },
        {
            "id": 306571,
            "adult": false
        },
        {
            "id": 790231,
            "adult": false
        },
        {
            "id": 736732,
            "adult": false
        },
        {
            "id": 1119004,
            "adult": false
        },
        {
            "id": 11986,
            "adult": false
        },
        {
            "id": 1120308,
            "adult": true
        },
        {
            "id": 19199,
            "adult": false
        },
        {
            "id": 13964,
            "adult": false
        },
        {
            "id": 62977,
            "adult": false
        },
        {
            "id": 55562,
            "adult": false
        },
        {
            "id": 1024627,
            "adult": false
        },
        {
            "id": 11471,
            "adult": false
        },
        {
            "id": 879990,
            "adult": false
        },
        {
            "id": 601796,
            "adult": false
        },
        {
            "id": 63322,
            "adult": false
        },
        {
            "id": 151441,
            "adult": false
        },
        {
            "id": 425185,
            "adult": false
        },
        {
            "id": 271029,
            "adult": false
        },
        {
            "id": 654739,
            "adult": false
        },
        {
            "id": 868985,
            "adult": false
        },
        {
            "id": 50347,
            "adult": true
        },
        {
            "id": 938540,
            "adult": null
        },
        {
            "id": 357563,
            "adult": false
        },
        {
            "id": 274739,
            "adult": false
        },
        {
            "id": 105496,
            "adult": false
        },
        {
            "id": 7085,
            "adult": false
        },
        {
            "id": 11046,
            "adult": false
        },
        {
            "id": 206522,
            "adult": false
        },
        {
            "id": 1119250,
            "adult": false
        },
        {
            "id": 28249,
            "adult": false
        },
        {
            "id": 74899,
            "adult": false
        },
        {
            "id": 393684,
            "adult": false
        },
        {
            "id": 67317,
            "adult": false
        },
        {
            "id": 943822,
            "adult": false
        },
        {
            "id": 327800,
            "adult": false
        },
        {
            "id": 652661,
            "adult": false
        },
        {
            "id": 742615,
            "adult": false
        },
        {
            "id": 396194,
            "adult": false
        },
        {
            "id": 1120309,
            "adult": false
        },
        {
            "id": 1120126,
            "adult": false
        },
        {
            "id": 9627,
            "adult": false
        },
        {
            "id": 805639,
            "adult": false
        },
        {
            "id": 409226,
            "adult": false
        },
        {
            "id": 565913,
            "adult": false
        },
        {
            "id": 1095822,
            "adult": false
        },
        {
            "id": 765946,
            "adult": false
        },
        {
            "id": 1119821,
            "adult": false
        },
        {
            "id": 83960,
            "adult": false
        },
        {
            "id": 1008538,
            "adult": false
        },
        {
            "id": 1120310,
            "adult": false
        },
        {
            "id": 1120311,
            "adult": false
        },
        {
            "id": 1120312,
            "adult": false
        },
        {
            "id": 17809,
            "adult": false
        },
        {
            "id": 761670,
            "adult": true
        }
    ],
    "page": 3,
    "total_pages": 57,
    "total_results": 5700
}