{
    "results": [
        {
            "id": 4037513,
            "adult": false
        },
        {
            "id": 2280390,
            "adult": false
        },
        {
            "id": 4037514,
            "adult": false
        },
        {
            "id": 4037515,
            "adult": false
        },
        {
            "id": 145914,
            "adult": false
        },
        {
            "id": 219174,
            "adult": false
        },
        {
            "id": 4037516,
            "adult": false
        },
        {
            "id": 2280370,
            "adult": false
        },
        {
            "id": 71787,
            "adult": false
        },
        {
            "id": 4037517,
            "adult": false
        },
        {
            "id": 3822396,
            "adult": false
        },
        {
            "id": 3824024,
            "adult": null
        },
        {
            "id": 4037518,
            "adult": false
        },
        {
            "id": 4037519,
            "adult": false
        },
        {
            "id": 4037520,
            "adult": false
        },
        {
            "id": 4037521,
            "adult": false
        },
        {
            "id": 1197804,
            "adult": false
        },
        {
            "id": 4037522,
            "adult": false
        },
        {
            "id": 4037523,
            "adult": false
        },
        {
            "id": 4037524,
            "adult": false
        },
        {
            "id": 4037525,
            "adult": false
        },
        {
            "id": 2518728,
            "adult": false
        },
        {
            "id": 2280385,
            "adult": false
        },
        {
            "id": 2002127,
            "adult": false
        },
        {
            "id": 4037526,
            "adult": false
        },
        {
            "id": 912652,
            "adult": false
        },
        {
            "id": 3167326,
            "adult": false
        },
        {
            "id": 4037527,
            "adult": false
        },
        {
            "id": 2002129,
            "adult": false
        },
        {
            "id": 1516870,
            "adult": false
        },
        {
            "id": 4037528,
            "adult": false
        },
        {
            "id": 4037529,
            "adult": false
        },
        {
            "id": 4037530,
            "adult": false
        },
        {
            "id": 1498431,
            "adult": false
        },
        {
            "id": 2836209,
            "adult": false
        },
        {
            "id": 4037531,
            "adult": false
        },
        {
            "id": 4037532,
            "adult": false
        },
        {
            "id": 4037533,
            "adult": false
        },
        {
            "id": 3760310,
            "adult": false
        },
        {
            "id": 3336307,
            "adult": false
        },
        {
            "id": 4037447,
            "adult": false
        },
        {
            "id": 4037534,
            "adult": false
        },
        {
            "id": 4037535,
            "adult": false
        },
        {
            "id": 4037536,
            "adult": false
        },
        {
            "id": 4037537,
            "adult": false
        },
        {
            "id": 4037538,
            "adult": false
        },
        {
            "id": 4037539,
            "adult": false
        },
        {
            "id": 4037540,
            "adult": false
        },
        {
            "id": 2364228,
            "adult": false
        },
        {
            "id": 3639050,
            "adult": false
        },
        {
            "id": 4037541,
            "adult": false
        },
        {
            "id": 4037542,
            "adult": false
        },
        {
            "id": 4037543,
            "adult": false
        },
        {
            "id": 4037544,
            "adult": false
        },
        {
            "id": 1253578,
            "adult": false
        },
        {
            "id": 4037545,
            "adult": false
        },
        {
            "id": 89031,
            "adult": false
        },
        {
            "id": 4037546,
            "adult": false
        },
        {
            "id": 89033,
            "adult": false
        },
        {
            "id": 89032,
            "adult": false
        },
        {
            "id": 4037547,
            "adult": null
        },
        {
            "id": 1594799,
            "adult": false
        },
        {
            "id": 4037548,
            "adult": false
        },
        {
            "id": 4037549,
            "adult": false
        },
        {
            "id": 4032723,
            "adult": false
        },
        {
            "id": 4037550,
            "adult": false
        },
        {
            "id": 4037551,
            "adult": false
        },
        {
            "id": 1429240,
            "adult": false
        },
        {
            "id": 4037552,
            "adult": false
        },
        {
            "id": 4037553,
            "adult": false
        },
        {
            "id": 4037554,
            "adult": false
        },
        {
            "id": 1624147,
            "adult": false
        },
        {
            "id": 91659,
            "adult": false
        },
        {
            "id": 4026,
            "adult": false
        },
        {
            "id": 4037555,
            "adult": false
        },
        {
            "id": 4037556,
            "adult": false
        },
        {
            "id": 4037557,
            "adult": false
        },
        {
            "id": 3387848,
            "adult": false
        },
        {
            "id": 4037558,
            "adult": false
        },
        {
            "id": 4037559,
            "adult": false
        },
        {
            "id": 4037560,
            "adult": false
        },
        {
            "id": 4037561,
            "adult": false
        },
        {
            "id": 4037562,
            "adult": false
        },
        {
            "id": 4037563,
            "adult": false
        },
        {
            "id": 4037564,
            "adult": false
        },
        {
            "id": 174107,
            "adult": false
        },
        {
            "id": 1389612,
            "adult": false
        },
        {
            "id": 4037565,
            "adult": false
        },
        {
            "id": 4037566,
            "adult": false
        },
        {
            "id": 4037567,
            "adult": false
        },
        {
            "id": 4028058,
            "adult": false
        },
        {
            "id": 209417,
            "adult": false
        },
        {
            "id": 1503678,
            "adult": false
        },
        {
            "id": 4037568,
            "adult": false
        },
        {
            "id": 3990456,
            "adult": false
        },
        {
            "id": 3887648,
            "adult": false
        },
        {
            "id": 756648,
            "adult": false
        },
        {
            "id": 1527424,
            "adult": false
        },
        {
            "id": 1086468,
            "adult": false
        },
        {
            "id": 2277566,
            "adult": false
        }
    ],
    "page": 1,
    "total_pages": 53,
    "total_results": 5292
}