{
    "results": [
        {
            "id": 225591,
            "adult": false
        },
        {
            "id": 220819,
            "adult": false
        },
        {
            "id": 203857,
            "adult": false
        },
        {
            "id": 1063,
            "adult": false
        },
        {
            "id": 225601,
            "adult": false
        },
        {
            "id": 201177,
            "adult": false
        },
        {
            "id": 225602,
            "adult": false
        },
        {
            "id": 112529,
            "adult": false
        },
        {
            "id": 114922,
            "adult": false
        },
        {
            "id": 225603,
            "adult": false
        },
        {
            "id": 22569,
            "adult": false
        },
        {
            "id": 218865,
            "adult": false
        },
        {
            "id": 225332,
            "adult": false
        },
        {
            "id": 211309,
            "adult": false
        },
        {
            "id": 219847,
            "adult": false
        },
        {
            "id": 134224,
            "adult": false
        },
        {
            "id": 209265,
            "adult": false
        },
        {
            "id": 212350,
            "adult": false
        },
        {
            "id": 219241,
            "adult": false
        },
        {
            "id": 221598,
            "adult": false
        },
        {
            "id": 225217,
            "adult": false
        },
        {
            "id": 209306,
            "adult": false
        },
        {
            "id": 102051,
            "adult": false
        },
        {
            "id": 104596,
            "adult": false
        },
        {
            "id": 212989,
            "adult": false
        },
        {
            "id": 224135,
            "adult": false
        },
        {
            "id": 223043,
            "adult": false
        },
        {
            "id": 65684,
            "adult": false
        },
        {
            "id": 198988,
            "adult": false
        },
        {
            "id": 1431,
            "adult": false
        },
        {
            "id": 221854,
            "adult": false
        },
        {
            "id": 34607,
            "adult": false
        },
        {
            "id": 27485,
            "adult": false
        },
        {
            "id": 153655,
            "adult": true
        },
        {
            "id": 731,
            "adult": false
        },
        {
            "id": 111551,
            "adult": false
        },
        {
            "id": 45563,
            "adult": false
        },
        {
            "id": 17740,
            "adult": false
        },
        {
            "id": 68026,
            "adult": false
        },
        {
            "id": 73010,
            "adult": false
        },
        {
            "id": 91247,
            "adult": false
        },
        {
            "id": 129604,
            "adult": false
        },
        {
            "id": 22865,
            "adult": false
        },
        {
            "id": 52135,
            "adult": false
        },
        {
            "id": 194632,
            "adult": false
        },
        {
            "id": 213705,
            "adult": false
        },
        {
            "id": 211102,
            "adult": false
        },
        {
            "id": 225155,
            "adult": null
        },
        {
            "id": 17380,
            "adult": false
        },
        {
            "id": 224522,
            "adult": false
        },
        {
            "id": 70036,
            "adult": false
        },
        {
            "id": 92803,
            "adult": false
        },
        {
            "id": 80240,
            "adult": false
        },
        {
            "id": 38693,
            "adult": false
        },
        {
            "id": 85660,
            "adult": false
        },
        {
            "id": 136155,
            "adult": false
        },
        {
            "id": 116653,
            "adult": null
        },
        {
            "id": 32726,
            "adult": false
        },
        {
            "id": 128255,
            "adult": false
        },
        {
            "id": 217510,
            "adult": false
        },
        {
            "id": 211311,
            "adult": false
        },
        {
            "id": 97951,
            "adult": false
        },
        {
            "id": 214997,
            "adult": false
        },
        {
            "id": 70785,
            "adult": false
        },
        {
            "id": 37854,
            "adult": false
        },
        {
            "id": 211564,
            "adult": false
        },
        {
            "id": 33993,
            "adult": false
        },
        {
            "id": 71232,
            "adult": false
        },
        {
            "id": 69275,
            "adult": false
        },
        {
            "id": 207250,
            "adult": false
        },
        {
            "id": 210506,
            "adult": false
        },
        {
            "id": 107255,
            "adult": false
        },
        {
            "id": 90701,
            "adult": false
        },
        {
            "id": 76331,
            "adult": false
        },
        {
            "id": 14981,
            "adult": false
        },
        {
            "id": 223079,
            "adult": false
        },
        {
            "id": 210479,
            "adult": false
        },
        {
            "id": 216672,
            "adult": null
        },
        {
            "id": 65334,
            "adult": false
        },
        {
            "id": 157069,
            "adult": false
        },
        {
            "id": 50829,
            "adult": false
        },
        {
            "id": 225604,
            "adult": false
        },
        {
            "id": 65336,
            "adult": false
        },
        {
            "id": 208230,
            "adult": false
        },
        {
            "id": 138455,
            "adult": false
        },
        {
            "id": 158168,
            "adult": false
        },
        {
            "id": 220191,
            "adult": false
        },
        {
            "id": 225152,
            "adult": false
        },
        {
            "id": 221249,
            "adult": false
        },
        {
            "id": 84693,
            "adult": false
        },
        {
            "id": 213130,
            "adult": false
        },
        {
            "id": 219476,
            "adult": false
        },
        {
            "id": 209374,
            "adult": false
        },
        {
            "id": 94997,
            "adult": false
        },
        {
            "id": 82395,
            "adult": false
        },
        {
            "id": 52814,
            "adult": false
        },
        {
            "id": 224939,
            "adult": false
        },
        {
            "id": 225178,
            "adult": false
        },
        {
            "id": 225605,
            "adult": false
        },
        {
            "id": 207863,
            "adult": false
        }
    ],
    "page": 1,
    "total_pages": 18,
    "total_results": 1763
}